lo: [i4----] MDNS 192.168.1.103:5353 --> 224.0.0.251:5353
lo: [i6----] MDNS fe80::7a92:9cff:fe0f:a88e:5353 --> ff02::fb:5353
lo: [i4----] DNS.126.netify.google 192.168.1.103:53734 --> 192.168.1.254:53 H: safebrowsing.googleusercontent.com
lo: [i4-gd-] HTTPS.126.netify.google 172.217.22.14:443 <-- 192.168.1.103:38657 H: sb.l.google.com
lo: [i4----] DNS.126.netify.google 192.168.1.103:46078 --> 192.168.1.254:53 H: ssl.gstatic.com
lo: [i4--d-] QUIC.126.netify.google 172.217.23.67:443 <-- 192.168.1.103:51507 H: ssl.gstatic.com
lo: [i4----] DNS.10136.netify.gsuite 192.168.1.103:55862 --> 192.168.1.254:53 H: docs.google.com
lo: [i4--d-] QUIC.10136.netify.gsuite 192.168.1.103:57591 --> 216.58.198.46:443 H: docs.google.com
lo: [i4-g--] Unknown.126.netify.google 64.233.167.188:5228 <-- 192.168.1.103:36017
lo: [i4-gd-] HTTPS.10402.netify.wechat 192.168.1.103:54058 <-- 203.205.151.162:443 H: web1.wechat.com
lo: [i4-gd-] HTTPS.10402.netify.wechat 192.168.1.103:54089 --> 203.205.151.162:443 H: web1.wechat.com
lo: [i4-gd-] HTTPS.10402.netify.wechat 192.168.1.103:54090 --> 203.205.151.162:443 H: web1.wechat.com
lo: [i4-gd-] HTTPS.10402.netify.wechat 192.168.1.103:54091 --> 203.205.151.162:443 H: web1.wechat.com
lo: [i4-gd-] HTTPS.10402.netify.wechat 192.168.1.103:54092 --> 203.205.151.162:443 H: web1.wechat.com
lo: [i4-gd-] HTTPS.10402.netify.wechat 192.168.1.103:54094 --> 203.205.151.162:443 H: web1.wechat.com
lo: [i4-gd-] HTTPS.10402.netify.wechat 192.168.1.103:54095 --> 203.205.151.162:443 H: web1.wechat.com
lo: [i4-gd-] HTTPS.10402.netify.wechat 192.168.1.103:54096 --> 203.205.151.162:443 H: web1.wechat.com
lo: [i4-gd-] HTTPS.10402.netify.wechat 192.168.1.103:54097 --> 203.205.151.162:443 H: web1.wechat.com
lo: [i4-gd-] HTTPS.10402.netify.wechat 192.168.1.103:54098 --> 203.205.151.162:443 H: web1.wechat.com
lo: [i4-gd-] HTTPS.10402.netify.wechat 192.168.1.103:54099 --> 203.205.151.162:443 H: web1.wechat.com
lo: [i4-gd-] HTTPS.10402.netify.wechat 192.168.1.103:54100 --> 203.205.151.162:443 H: web1.wechat.com
lo: [i4-gd-] HTTPS.10402.netify.wechat 192.168.1.103:54101 --> 203.205.151.162:443 H: web1.wechat.com
lo: [i4-gd-] HTTPS.10402.netify.wechat 192.168.1.103:54102 --> 203.205.151.162:443 H: web1.wechat.com
lo: [i4-gd-] HTTPS.10402.netify.wechat 192.168.1.103:54103 --> 203.205.151.162:443 H: web1.wechat.com
lo: [i4----] MDNS 192.168.1.103:5353 --> 224.0.0.251:5353
lo: [i6----] MDNS fe80::7a92:9cff:fe0f:a88e:5353 --> ff02::fb:5353
lo: [i4-gd-] HTTPS.10402.netify.wechat 192.168.1.103:54104 --> 203.205.151.162:443 H: web1.wechat.com
lo: [i4-gd-] HTTPS.10402.netify.wechat 192.168.1.103:54111 --> 203.205.151.162:443 H: web1.wechat.com
lo: [i4-gd-] HTTPS.10402.netify.wechat 192.168.1.103:54113 --> 203.205.151.162:443 H: web1.wechat.com
lo: [i4----] DNS.48.netify.qq 192.168.1.103:19041 --> 192.168.1.254:53 H: res.wx.qq.com
lo: [i4-gd-] HTTPS.48.netify.qq 192.168.1.103:43850 --> 203.205.158.34:443 H: ssd.tcdn.qq.com
lo: [i4----] DNS.126.netify.google 192.168.1.103:60562 --> 192.168.1.254:53 H: ssl.gstatic.com
lo: [i4--d-] QUIC.126.netify.google 172.217.23.67:443 <-- 192.168.1.103:35601 H: ssl.gstatic.com
lo: [i4----] NetBIOS 192.168.1.100:138 --> 192.168.1.255:138
lo: [i4-gd-] HTTPS.10402.netify.wechat 192.168.1.103:54117 --> 203.205.151.162:443 H: web1.wechat.com
lo: [i4-gd-] HTTPS.10402.netify.wechat 192.168.1.103:54118 --> 203.205.151.162:443 H: web1.wechat.com
lo: [i4-gd-] HTTPS.10402.netify.wechat 192.168.1.103:54119 --> 203.205.151.162:443 H: web1.wechat.com
lo: [i4-gd-] HTTPS.10402.netify.wechat 192.168.1.103:54120 --> 203.205.151.162:443 H: web1.wechat.com
lo: [i4----] DNS.10402.netify.wechat 192.168.1.103:60356 --> 192.168.1.254:53 H: web.wechat.com
lo: [i4-gd-] HTTPS.10402.netify.wechat 192.168.1.103:58036 --> 203.205.147.171:443 H: web1.wechat.com
lo: [i4-gd-] HTTPS.10402.netify.wechat 192.168.1.103:58038 --> 203.205.147.171:443 H: web1.wechat.com
lo: [i4-gd-] HTTPS.10402.netify.wechat 192.168.1.103:58039 --> 203.205.147.171:443 H: web1.wechat.com
lo: [i4----] MDNS 192.168.1.100:5353 --> 224.0.0.251:5353
lo: [i6----] MDNS fe80::91f9:3df3:7436:6cd6:5353 --> ff02::fb:5353
lo: [i4----] NetBIOS 192.168.1.100:137 --> 192.168.1.255:137
lo: [i4----] DHCP 0.0.0.0:68 --> 255.255.255.255:67 H: iphonedimonica
lo: [i4-gd-] HTTPS.10402.netify.wechat 192.168.1.103:58040 --> 203.205.147.171:443 H: web1.wechat.com
lo: [i4-gd-] HTTPS.10402.netify.wechat 192.168.1.103:58041 --> 203.205.147.171:443 H: web1.wechat.com
lo: [i4-gd-] HTTPS.10402.netify.wechat 192.168.1.103:58042 --> 203.205.147.171:443 H: web1.wechat.com
lo: [i4----] NTP 192.168.1.103:37578 --> 193.204.114.233:123
